﻿plant;stage;src_frame;
1;0;plant_0;
1;1;plant_2_1;
1;2;plant_2_2;
1;3;plant_2_3;
1;4;plant_2_4;
1;5;plant_2_5;
2;0;plant_0;
2;1;plant_1_1;
2;2;plant_1_2;
3;0;plant_0;
3;1;plant_3_1;
3;2;plant_3_2;
3;3;plant_3_3;
4;0;plant_0;
4;1;plant_4_1;
4;2;plant_4_2;
4;3;plant_4_3;
4;4;plant_4_4;